0 0.000163723 0.00012516 0.000105548 0 8.8504e-05 6.76577e-05 5.70561e-05 0 0.00013774 0.000105296 8.87971e-05 0 0 0 0 6.13419e-12 
2.25 3.55655 -0.0144524 0.0430099 0 -0.0189887 3.53404 -0.00372005 0 0.054117 -0.000549796 3.49259 0 0 0 0 3.47161 
4.5 12.6928 -0.311782 0.356544 -0.00878122 -0.320334 11.8658 0.466673 0.826204 0.469273 -0.116665 12.4071 0.0701776 0.00479415 -0.718043 -0.0544636 11.6954 
6.75 5.94458 -0.0633236 -0.0286469 0.00140349 -0.0674914 5.92186 0.0144695 -0.00337907 -0.0266718 0.00205537 5.88041 -0.0812604 0.000766702 -0.000493396 0.0813263 5.85836 
9 8.06819 0.0231813 0.030142 0.000299643 0.0269596 7.98592 0.0103669 0.143233 0.0304278 0.0506098 8.03291 -0.0683838 0.00294849 -0.135513 0.0826863 7.95259 
11.25 6.28014 0.043303 -0.00203785 1.58099e-05 0.0429322 6.27498 0.00807609 1.50066e-05 -0.00126854 -0.00813076 6.26609 5.06038e-06 7.26511e-07 -9.00545e-07 1.27274e-06 6.26104 
13.5 10.4747 0.131267 0.00617513 2.68117e-06 0.131225 10.4689 -0.00940015 6.85324e-07 0.00545178 0.00246043 10.4657 2.59856e-06 -1.00069e-08 1.72896e-07 -6.12373e-08 10.4601 
15.75 10.4977 0.195334 -0.0015165 -6.99612e-07 0.195689 10.4957 -0.00267716 -1.26673e-06 -0.00170615 0.00478803 10.4889 -5.03434e-07 1.29673e-05 -4.17329e-06 -1.26001e-05 10.4871 
18 6.5274 0.0390641 -0.0282882 -0.0014774 0.044581 6.50362 -0.0251103 0.0130354 -0.0284605 0.0613609 6.46342 -0.0418955 -0.0089225 -0.0051779 0.042838 6.45218 
20.25 7.88252 -0.101918 -0.00721601 -8.89705e-06 -0.104234 7.87538 0.0168725 -0.00127216 -0.00528156 -0.00478226 7.80246 0.00187867 -0.000467711 0.00222973 -0.000557997 7.79604 
22.5 3.83623 -0.173093 0.000438926 7.17904e-06 -0.173013 3.83517 0.00364891 -1.82192e-05 0.000232471 -0.00437473 3.75962 1.63233e-05 1.13694e-06 1.05533e-05 -2.09563e-05 3.75861 
24.75 6.34891 0.178725 -3.16459e-05 -1.09621e-08 0.178719 6.34864 -0.000259568 7.62723e-08 -6.17321e-05 0.000640466 6.31081 -2.08712e-07 -9.71199e-07 -9.80488e-07 1.76433e-07 6.31065 
27 4.73216 0.101414 0.000250268 -4.29949e-06 0.101422 4.73173 -0.0049347 7.77693e-05 -0.00049261 0.00547513 4.67826 -0.000306346 -0.000158292 0.000123689 0.000236181 4.67818 
29.25 4.50538 0.0503524 0.000221704 5.19671e-08 0.0503763 4.50505 -0.00227901 -4.52922e-08 0.000424129 0.00167276 4.42524 -2.54374e-08 -8.03136e-09 6.10846e-09 -5.40188e-09 4.42505 
31.5 3.27815 0.110476 0.00116785 -1.4253e-05 0.110257 3.27738 -0.00270922 -0.000183743 -3.96998e-05 0.00201017 3.22196 0.00138975 -0.000345057 6.07305e-05 -0.00155162 3.22157 
33.75 5.20103 0.331213 0.000148984 3.07845e-05 0.331244 5.20068 0.00601739 -1.32976e-05 -0.000517095 -0.00577838 5.13825 -4.58089e-05 -1.07681e-06 -1.72741e-06 3.75592e-05 5.13816 
36 4.25427 0.262383 -0.000942326 1.72822e-05 0.262426 4.25391 -0.0137488 -2.14646e-05 2.92288e-05 0.0141447 4.1781 4.608e-06 3.56186e-05 -3.80468e-05 -3.69508e-06 4.17822 
38.25 3.53285 0.279505 -0.00320996 -0.000787758 0.279579 3.53047 0.00171362 0.00223763 -0.00329342 0.00445369 3.46546 -0.0018274 0.000293359 -0.00169399 0.00222321 3.46336 
40.5 2.56578 0.181811 -0.000198474 -1.11746e-07 0.18181 2.5657 -0.00505525 1.04328e-07 0.000484261 0.0051366 2.49358 -4.08234e-08 1.53699e-09 -1.66145e-09 3.05364e-09 2.49364 
42.75 2.63693 0.21481 -2.45237e-05 -3.64637e-05 0.21485 2.63667 0.0039593 4.72968e-05 -0.000610047 -0.00419964 2.54451 7.48198e-05 -2.41666e-07 -1.40534e-05 -6.1393e-05 2.54462 
45 2.03714 0.262159 -0.00110626 -8.66745e-07 0.262172 2.03671 -0.00677011 -4.46244e-06 0.000148163 0.00700113 1.98498 1.47175e-07 0.000144831 -0.000102096 -0.000102717 1.98491 
47.25 1.21833 0.142139 -0.0111629 -0.000485639 0.140192 1.20118 -0.0202633 -0.0116291 -0.0114391 -0.0190108 0.960242 -0.00359007 -0.00295799 -0.0109601 0.00557432 0.944542 
49.5 1.58092 0.167211 -0.00077571 8.05553e-05 0.167228 1.58067 -0.00387029 -0.000327094 -0.00020054 0.00469815 1.4875 0.00107721 -4.95171e-05 0.000129721 -0.00112595 1.4875 
51.75 1.37692 0.118739 0.00123791 -8.23659e-06 0.118831 1.37648 0.0158777 4.37567e-07 -0.002238 -0.0157491 1.26003 6.1597e-06 -3.07557e-06 4.5864e-06 7.14568e-07 1.26 
54 0.642654 0.0753706 -0.000342682 6.48088e-06 0.0753604 0.642392 0.000656333 -1.82589e-06 -0.000437172 -0.000755681 0.58875 -1.04443e-05 1.92952e-05 -1.71764e-05 3.92874e-06 0.588754 
56.25 1.36304 0.184316 0.000495455 -2.96906e-06 0.184431 1.36284 0.00528007 -1.11725e-05 -0.00100811 -0.00499374 1.23754 9.56626e-06 1.67238e-05 -1.5373e-05 -1.59646e-05 1.23757 
58.5 0.664912 0.155669 -0.000102755 2.50876e-07 0.15567 0.664869 0.000704806 -1.61576e-06 -0.000199246 -0.000735625 0.627884 -1.14221e-05 1.70632e-06 -3.46922e-06 1.11311e-05 0.627918 
60.75 0.751277 0.0632626 0.0194395 0.00176503 0.0533853 0.729778 -0.0174929 -0.00267014 0.0107182 -0.0158437 0.612949 -0.00904631 0.00288489 -0.00463573 0.0142939 0.595252 
63 0.714378 0.181504 -0.000888087 -4.66971e-11 0.181501 0.714219 -0.00700409 2.38342e-11 0.00129398 0.00710457 0.656506 3.94178e-11 -8.72441e-12 8.26578e-12 -7.13815e-13 0.656657 
65.25 0.847992 0.142439 0.000902574 -6.36169e-05 0.142386 0.847628 0.00170061 4.49702e-05 -9.00395e-05 -0.00229687 0.708704 -0.000140681 -4.44245e-06 2.23599e-05 8.49218e-05 0.708711 
67.5 0.346772 0.0375834 0.00158327 -1.00014e-06 0.037737 0.346465 0.00728803 -5.15214e-06 -0.000973499 -0.00771809 0.266564 2.52617e-06 0.000461362 -0.000456568 6.63967e-05 0.266639 
69.75 0.516632 0.091884 -0.000127651 -2.94623e-05 0.0918567 0.516469 -0.00419333 0.000123624 0.000315992 0.00405705 0.405441 -0.000917524 2.86161e-05 6.89501e-05 0.000920417 0.405564 
72 0.216474 0.0120468 0.000558552 4.87121e-08 0.0120479 0.216433 0.00242101 -1.76334e-07 -0.000452925 -0.00242441 0.144043 5.10799e-08 8.1711e-07 -3.37233e-07 -7.68543e-07 0.14406 
74.25 0.236859 0.0235256 0.00104597 0.00266763 0.0201592 0.231419 -0.0178147 -0.0057885 0.0128598 0.0210618 0.139164 0.0293124 -0.00294734 -0.00801495 -0.0287524 0.143383 
76.5 0.181678 -0.0480611 -0.000398931 0.000158704 -0.0480316 0.181484 -0.000619036 -0.00153358 0.000746345 -0.000911169 0.0561414 -0.00786869 -0.000168934 -1.9094e-05 0.00801718 0.0561847 
78.75 0.130516 -0.0390236 0.000148333 1.04796e-07 -0.0390262 0.13049 -7.38181e-05 -1.14801e-07 -0.000111995 5.29908e-05 0.0364941 4.49257e-07 -2.56869e-08 6.14685e-08 -4.68813e-08 0.0364982 
81 0.0625047 -0.0590221 4.12762e-05 0 -0.0590051 0.0624507 -1.31002e-05 0 -5.41647e-05 2.93343e-05 -0.0173024 0 0 0 0 -0.0172674 
83.25 0.106566 -0.0973726 -0.000159577 8.56765e-07 -0.0973557 0.106498 0.000508318 -7.783e-07 0.000309304 -0.000586954 -0.0328874 7.82048e-07 -2.10001e-07 2.97955e-07 -7.10794e-07 -0.0328392 
85.5 0.086566 -0.0789909 -0.000101116 -2.27473e-07 -0.0789962 0.0864846 0.000129721 1.76728e-07 9.9777e-05 -0.000105305 -0.0271124 1.48071e-07 -4.59636e-08 5.28303e-08 -2.12808e-08 -0.0270667 
87.75 0.106315 -0.0735018 0.00210235 -0.000420274 -0.0731358 0.105784 0.00388738 -0.000302518 0.00136361 -0.00291742 -0.0205194 -0.00493266 3.70154e-05 -0.000878246 0.00484521 -0.0202265 
90 0.161959 -0.0522139 0.0032956 -0.00334518 -0.0527183 0.157964 0.00061838 0.00763517 0.0028457 0.0146408 -0.0248681 -0.0581113 -0.001501 -0.00698825 0.0591056 -0.0234044 
92.25 0.155243 -0.0909822 -0.00102432 0.00198061 -0.0922258 0.151575 0.00909478 -0.0112842 -0.00317948 -0.0126168 -0.0141165 -0.0424753 -0.00141241 -0.00705477 0.0431363 -0.0109088 
94.5 0.112342 -0.0756418 -0.00147857 8.22727e-05 -0.0756402 0.111674 0.00359301 -0.000255029 0.000865184 -0.0032746 0.0150692 -0.00137674 -3.70449e-05 0.000204767 0.0013594 0.0155629 
96.75 0.109671 -0.0705725 -0.00173656 0.000707372 -0.0714072 0.105629 0.0114369 -0.00319897 -5.26238e-05 -0.012249 -0.0208715 -0.0115756 0.00016447 -0.00236246 0.0115966 -0.0170993 
99 0.167373 -0.0044302 -0.00331882 -0.000426383 -0.00457268 0.16362 -0.0214063 0.0088802 0.00546492 0.0240371 0.0737531 -0.0663579 0.000667179 0.00843466 0.0665975 0.0772307 
101.25 0.210637 0.0211838 0.0057874 -0.000296933 0.0211492 0.206041 0.0282251 -0.00380323 -0.00381168 -0.0273363 0.0846586 -0.0701048 0.000686524 -0.0030682 0.0704522 0.0891415 
103.5 0.0844 -0.0438769 -0.00175011 -3.54708e-07 -0.0441155 0.0833832 0.00748524 6.17494e-07 -5.31463e-05 -0.00725646 -0.00675986 -0.000215394 2.12993e-06 -4.74625e-06 0.000215362 -0.00577363 
105.75 0.0408085 -0.0246313 5.11022e-05 -1.13273e-06 -0.0246297 0.0407983 -4.97189e-05 8.54594e-07 4.22942e-05 -4.05394e-05 -0.0323311 7.48479e-07 3.30177e-08 -3.2387e-08 1.59316e-08 -0.0323376 
108 0.0468664 -0.0277443 -0.000763865 0.000269021 -0.0276929 0.0466136 0.000608849 0.000237247 -0.000451198 0.000380716 -0.0325966 -0.00277741 -0.000166542 -0.000223324 0.00276953 -0.0326246 
110.25 0.134313 -0.011945 0.00235913 -0.00118956 -0.0118462 0.133958 0.00446055 -0.00453399 0.000545856 -0.00230024 -0.0128567 0.0159517 0.00095681 0.005456 -0.0156444 -0.0129973 
112.5 0.0435932 -0.0256699 0.000783491 7.75151e-05 -0.0251153 0.0428247 -0.00163833 0.000804787 0.000527038 -0.000871594 -0.0321361 -0.00165549 -0.0029108 0.00324652 0.00114676 -0.032122 
114.75 0.0427004 -0.0208267 -8.42289e-05 3.00348e-06 -0.0208174 0.0426643 8.56892e-05 -3.00304e-06 3.1512e-05 -3.62436e-05 -0.0362865 5.05195e-07 -2.74605e-08 -8.89637e-08 4.95411e-07 -0.036272 
117 0.0229705 -0.0108235 -0.000578491 0.000137529 -0.0109127 0.0226839 0.000420855 -0.000101029 0.000148471 4.39338e-05 -0.019039 -0.000422926 3.37944e-05 -9.44788e-05 0.000385976 -0.0188242 
119.25 0.0146329 -0.00608207 2.46293e-05 0 -0.00607926 0.0146241 -2.43013e-05 0 8.31176e-06 -8.23965e-06 -0.012912 0 0 0 0 -0.0129085 
121.5 0.0657405 -0.0251617 1.30661e-05 4.51834e-06 -0.0250571 0.0656212 -1.59645e-05 -1.5499e-05 0.000291374 -0.000291273 -0.0596816 -1.7247e-05 -0.000108776 0.000109624 1.82344e-05 -0.0597 
123.75 0.036438 -0.0158839 0.00113361 8.97092e-05 -0.0159811 0.0359669 -0.00124856 0.000218772 0.000161213 0.000310008 -0.0255889 0.00263263 -0.000235393 -1.64542e-05 -0.00270589 -0.0252553 
126 0.0602736 -0.019385 -5.78275e-05 -3.5784e-09 -0.019384 0.0602569 5.28347e-05 1.9179e-06 6.13692e-05 -5.6583e-05 -0.0566185 3.47286e-06 -1.09673e-05 1.16541e-05 -5.12314e-07 -0.0566049 
128.25 0.0538224 -0.0154917 6.12611e-05 5.49301e-07 -0.0155198 0.0537818 -6.18381e-05 -7.85732e-07 1.8649e-05 -1.84511e-05 -0.05134 1.65692e-06 -1.0377e-05 7.38949e-06 -7.486e-06 -0.0513228 
130.5 0.0635124 -0.0172729 -4.65698e-05 -1.33715e-07 -0.0172863 0.063438 3.41732e-05 -1.68092e-07 -1.55032e-05 4.33243e-05 -0.0607849 -7.02934e-07 -2.19841e-06 2.94215e-07 2.11179e-06 -0.0607386 
132.75 0.0413191 -0.0103476 2.78421e-05 8.27753e-06 -0.0101994 0.0411473 3.53551e-05 1.24988e-06 -0.000145977 0.000138872 -0.0395933 -9.79606e-06 1.10647e-05 -1.03439e-05 6.60083e-06 -0.0395316 
135 0.0680227 -0.0152585 2.18905e-05 1.37031e-09 -0.0152424 0.0679578 -1.50688e-05 9.72451e-07 -5.02109e-05 4.80227e-05 -0.0658245 -1.07712e-06 -7.64211e-06 7.70131e-06 -1.23724e-06 -0.0657744 
137.25 0.0528976 -0.0104859 3.04235e-05 4.54681e-09 -0.0104831 0.0528787 -2.71687e-05 -4.04051e-09 -5.33879e-05 5.23476e-05 -0.0515437 1.8947e-09 5.2727e-11 -5.27573e-11 1.63621e-11 -0.0515311 
139.5 0.0468371 -0.00898088 5.17721e-05 3.31297e-05 -0.00897132 0.0467792 -6.37457e-05 -2.55305e-05 -9.18215e-05 9.64646e-05 -0.0449776 -5.93036e-05 1.94664e-05 -1.82439e-05 5.65985e-05 -0.0449441 
141.75 0.0359173 -0.00963457 0.00197583 -1.1714e-05 -0.00977437 0.0348408 -0.0026909 -0.000749062 -0.00152182 0.00265964 -0.0273231 0.00290235 -0.000181366 -0.000867312 -0.00280026 -0.0263336 
144 0.081251 -0.0118463 1.26749e-05 -8.15652e-09 -0.0118397 0.0812247 -1.0887e-05 7.13815e-09 5.55214e-05 -5.40606e-05 -0.0797443 3.89399e-09 -7.58838e-13 6.52588e-13 4.36492e-13 -0.0797255 
146.25 0.0557061 -0.00807023 0.000750117 0.00115086 -0.00730416 0.0508916 0.011896 -0.00606585 -0.000737282 -0.00390674 -0.0368123 -0.021624 0.00237764 -0.0129349 0.018482 -0.0333804 
148.5 0.0639677 -0.0111906 0.00162099 -1.87607e-05 -0.0111963 0.0629555 -0.00211391 -0.00154112 -0.00158568 0.00206664 -0.0569253 0.00387241 -1.12188e-05 -0.00154584 -0.00386939 -0.0559167 
150.75 0.0645661 -0.00900369 -0.000224401 5.68453e-05 -0.00881638 0.0639683 -0.000417061 -2.91229e-05 -0.000182278 0.000573565 -0.0607388 -7.17662e-05 -3.56878e-06 -5.42543e-06 6.86674e-05 -0.0602428 
153 0.049179 -0.0366529 -0.00199983 1.87272e-07 -0.0367052 0.049081 0.00202047 -1.63088e-07 0.000774497 -0.000605157 -0.0141507 8.72832e-08 1.95543e-08 -1.3093e-08 8.78168e-09 -0.0140929 
155.25 0.520834 -0.424893 0.0112204 0.000600484 -0.423705 0.516072 -0.00217097 -3.56848e-05 -0.0109288 0.0039556 -0.228586 -0.000585966 -5.26712e-05 9.52251e-05 0.00042163 -0.224675 
157.5 1.30649 -1.09379 -0.00666969 -0.000196435 -1.08986 1.2905 0.0107571 -0.000741847 0.00961158 -0.0149318 -0.451115 3.03061e-05 0.000284767 -0.000777975 -0.000113594 -0.43729 
159.75 1.55573 -1.07033 -0.020954 0.00237075 -1.06458 1.4849 0.0670198 -0.00814438 0.0117372 -0.0553526 -0.377193 0.0172801 0.0030035 0.00893307 -0.0116869 -0.309909 
162 1.08967 -0.603949 0.00556295 0.000181765 -0.60382 1.07497 -0.0382633 -0.000338584 -0.000296546 0.037017 -0.24571 -0.000670937 -2.10325e-05 8.70602e-06 0.000729278 -0.231786 
164.25 0.970281 -0.423048 -0.00633888 0.000196134 -0.4203 0.940981 0.0027167 0.0024321 0.00784513 -0.00124123 -0.00437405 -0.00925889 0.000487048 0.00240172 0.00936337 0.0238858 
166.5 1.09667 -0.16072 0.00188516 1.47248e-05 -0.166656 1.06188 -0.127022 4.02832e-05 0.0310038 0.127603 -0.301749 0.00023847 -3.5177e-05 7.18592e-05 -0.000233126 -0.26777 
168.75 1.04194 -0.193338 0.0190566 1.3222e-06 -0.193437 0.958481 -0.159138 9.38027e-07 -0.0298014 0.158479 -0.0407665 5.22287e-07 8.40795e-07 7.43538e-07 -4.0563e-07 0.0423608 
171 0.631044 -0.100988 -0.0158063 -9.00521e-10 -0.102888 0.588958 0.0593533 7.33171e-08 0.00825449 -0.0585581 -0.399948 -2.4312e-08 -3.17952e-06 7.43852e-07 -3.09225e-06 -0.358012 
173.25 1.52756 -0.101689 -0.233429 -0.00498875 -0.150917 0.423701 -0.0565167 0.186411 0.233194 0.117222 -0.889415 0.0349828 -0.0285955 0.192106 0.0489885 0.207039 
175.5 0.57149 0.0324103 -0.0210282 -1.07774e-13 0.0266675 0.428404 -0.15868 -2.51473e-10 0.0370388 0.159896 -0.1309 -1.92758e-10 -2.34716e-07 1.55019e-07 1.7624e-07 0.0118915 
177.75 0.82974 -0.252189 -0.00735033 -0.00340007 -0.25132 0.828293 -0.024461 0.000772286 -0.0220373 0.0345096 0.204787 0.0540843 0.000580667 -0.00321433 -0.0538872 0.205401 
180 0.000550736 -0.000527944 0.000154283 0 -0.000522545 0.000499766 -0.000155141 0 -0.000171683 0.000172454 -2.27244e-05 0 0 0 0 2.79584e-05 
