0 0.765973 -0.034984 -0.00366866 -0.00379333 -0.00421708 0.680452 0.032925 -0.0191815 0.00134392 -0.020449 0.669817 -0.0201619 0.000762314 -0.0140449 0.0156117 0.721382 
2.25 1.05911 -0.0462302 0.00291413 -0.000989082 -0.0485372 0.92114 -0.0329367 0.0233487 0.00107125 0.025728 0.88346 0.00275 0.00119509 0.00830189 0.0321423 0.90665 
4.5 1.90357 -0.0851936 -0.000850502 0.00318731 -0.0810199 1.75287 -0.0249101 0.0284781 -0.0013421 0.0274383 1.77785 -0.011939 0.00131673 0.00477664 0.0278592 1.76281 
6.75 7.51921 -0.168583 -0.0052969 0.00338265 -0.1698 7.40471 -0.0521406 -0.0129057 -0.0111151 0.0683526 7.39272 -0.0030907 -0.000122654 0.00445401 0.00519644 7.38882 
9 2.24791 -0.0936101 -0.00731736 0.003073 -0.0912209 2.12566 -0.0300429 0.00154997 -0.00815029 0.0121499 2.10977 0.00951363 0.00224669 -0.020214 -0.00731696 2.09295 
11.25 4.28239 -0.0991985 0.00258982 0.00354828 -0.0989522 4.16959 -0.0116816 -0.00148278 0.00251444 0.0100244 4.14483 0.00593086 0.00157698 -0.00151405 -0.00931159 4.13421 
13.5 7.79244 -0.119345 -0.0039759 0.00215056 -0.123335 7.67604 -0.0175351 -0.000579078 -0.00042718 0.0076644 7.65173 -0.00930112 0.00193676 -0.00649822 0.0235624 7.64589 
15.75 4.6077 -0.14501 -0.00940679 0.00120956 -0.145417 4.49545 -0.0221275 0.00160605 -0.00612224 0.0241553 4.46115 0.000994477 -0.00145577 0.00111985 0.0102871 4.46023 
18 3.13892 -0.115163 0.00568586 0.000739841 -0.113587 3.02578 -0.01846 0.0019531 0.00453847 0.0180589 2.99033 -0.00719479 0.000562226 0.00492261 0.00916574 2.98565 
20.25 2.08631 -0.102556 0.00312253 0.00249799 -0.100798 1.98487 -0.00521323 0.00368056 0.00454191 0.00278752 1.92901 -0.0149158 0.000280777 0.00996893 0.00856395 1.91753 
22.5 1.89577 -0.0846283 -0.0046759 7.86423e-06 -0.0839996 1.80512 -0.00965786 -0.00173626 -0.00199493 0.0100851 1.75232 -0.0224236 0.000818757 -0.0033304 0.0164723 1.74367 
24.75 1.39501 -0.112627 0.00143543 -0.00032138 -0.113409 1.27646 0.00559557 0.0125293 0.00199875 0.00412708 1.2141 -0.0157094 0.000373679 0.0057131 0.0201162 1.19712 
27 1.44686 -0.109291 -0.00169508 -0.000241103 -0.109346 1.33639 -0.00523038 -0.00245614 -0.000448751 -0.00215518 1.27559 -0.0210333 -0.000458659 0.00674416 0.023738 1.26451 
29.25 1.91815 -0.0717083 0.00135549 -0.00121686 -0.072088 1.81276 -0.00345135 0.00107342 0.0004512 0.00241065 1.73936 -0.0221126 0.000336594 0.00361012 0.019981 1.72761 
31.5 2.54842 -0.0103265 0.00265631 -0.00121037 -0.0112149 2.44742 0.006604 -0.012102 0.00431047 0.00350788 2.36316 -0.0409634 -0.00019711 0.00727021 0.0388792 2.35794 
33.75 2.34715 -0.0116363 -0.000411236 -0.00116331 -0.01203 2.23923 0.0133445 0.00695831 0.00191128 -0.0134538 2.15624 -0.0445363 -0.00119325 -0.00624605 0.0460424 2.15035 
36 2.3308 0.0122972 0.000629486 -0.000685563 0.0143081 2.21872 0.00856784 0.00368671 -0.000656915 -0.00356958 2.12656 -0.0336296 -0.000304679 0.00221966 0.0386809 2.12945 
38.25 2.21329 0.0267681 0.00623418 -0.000212574 0.0270333 2.08606 0.0150808 -0.000179628 0.00313323 -0.0121136 1.98294 -0.057753 0.000100129 -0.00206366 0.0522176 1.98372 
40.5 1.87789 0.0123739 -0.00274465 -0.000752297 0.0124501 1.74124 0.000906478 0.0170262 -0.00221875 0.00188331 1.64297 -0.0609354 4.49385e-05 -0.00773478 0.0681723 1.65372 
42.75 1.57988 -0.000682252 -0.00170437 -0.00188252 0.00098994 1.44037 -0.00695498 0.00490084 -0.000681071 0.00818901 1.34538 -0.0737117 -0.000880203 -0.00685318 0.0785294 1.33823 
45 1.366 -0.000923967 0.000903823 -0.000931162 -0.00111811 1.20717 0.00219141 -0.00635293 0.00126094 0.0131237 1.11483 -0.0650203 -0.00159023 -0.00415866 0.0677083 1.10381 
47.25 1.22724 -0.0367257 -0.000717124 -0.0018868 -0.0372988 1.03976 -0.0158596 0.0137195 -0.000307761 0.0123063 0.926162 -0.0916408 -0.00025482 -0.00723166 0.0980386 0.931321 
49.5 1.01593 -0.0496599 0.000895615 -0.000493891 -0.0500519 0.838447 -0.00306522 -0.0019598 -0.000820926 0.00306483 0.728682 -0.09749 -0.000566341 0.00537387 0.0943523 0.730367 
51.75 0.886728 -0.0684604 0.000990945 -0.000765111 -0.0671119 0.716842 0.00253695 -0.00746773 -7.30072e-05 -0.00252046 0.587765 -0.128584 -0.000552335 0.00697669 0.116302 0.595493 
54 0.79839 -0.0733489 0.000978746 -0.00045174 -0.0749188 0.622551 0.00517606 0.00581662 -0.0027633 -0.00701147 0.499846 -0.111367 -4.60656e-05 -0.0124752 0.108055 0.514151 
56.25 0.767739 -0.0727491 -1.73733e-05 -0.000290227 -0.0746224 0.582913 0.00172328 -0.00589595 -0.00300083 -0.00274989 0.448026 -0.138451 -0.00183792 -0.00573509 0.131175 0.467112 
58.5 0.782108 -0.072828 0.00281869 -0.000502781 -0.0736152 0.57451 0.00139357 -0.0135325 -0.00212986 -0.00174893 0.427019 -0.158552 0.00129353 -0.00084241 0.143943 0.457228 
60.75 0.783211 -0.0708521 0.00252749 -0.00014898 -0.070984 0.560939 -0.000161798 -0.015363 0.000773012 -0.00635076 0.416074 -0.16003 -0.000981193 0.000141112 0.155344 0.434279 
63 0.757342 -0.0570301 -5.21304e-05 -0.000433562 -0.0562371 0.563193 0.00596326 -0.00574623 -0.00459374 -4.6291e-05 0.408294 -0.163831 0.000719238 -0.00745464 0.160791 0.43263 
65.25 0.776557 -0.0516702 0.00167057 0.00157011 -0.0521096 0.557929 0.00865224 -0.0151887 0.000803896 -0.0137439 0.400162 -0.183224 0.00190952 0.00104848 0.184663 0.439013 
67.5 0.72558 -0.0648253 1.9499e-05 0.0016845 -0.0659125 0.510754 0.00715695 0.000969448 -0.00203404 -0.0101189 0.340657 -0.195175 0.000787191 -0.0119219 0.196804 0.39088 
69.75 0.683665 -0.0690002 -0.000201727 0.000407109 -0.0712226 0.47605 -0.0139275 -0.00786963 -0.00108711 0.00859645 0.305023 -0.205271 -8.08856e-05 0.00593541 0.198585 0.338779 
72 0.669353 -0.0767035 0.00198753 0.000228583 -0.0747666 0.459281 0.00576304 -0.0073237 0.000252949 -0.00392667 0.284069 -0.218338 0.000525798 -0.00537175 0.225322 0.331374 
74.25 0.695731 -0.0693064 0.00236284 0.000833867 -0.0687075 0.470062 -0.00836147 0.00672193 -0.00314361 0.00404353 0.286459 -0.23286 0.000655243 -0.00616814 0.238344 0.342367 
76.5 0.665207 -0.0669297 0.00147692 0.000855977 -0.0664683 0.459121 0.0152466 -0.00536175 -0.0015129 -0.0129684 0.270546 -0.236639 -0.000202514 -0.00132127 0.239747 0.328656 
78.75 0.714035 -0.0643332 0.0008662 0.00144278 -0.0659985 0.471569 0.00456867 -0.00631325 0.00187972 -0.00470302 0.267644 -0.269338 0.00206536 -0.0017008 0.261987 0.348846 
81 0.641596 -0.0655021 0.00311723 -0.000473128 -0.0648231 0.404639 0.00580289 0.00377303 -0.00152077 -0.00307433 0.218378 -0.239191 0.00127466 -0.00305372 0.225882 0.293708 
83.25 0.674828 -0.0666102 -0.00148849 -0.000953486 -0.0653462 0.414166 0.00397862 0.00678734 -0.00190584 -0.003175 0.209218 -0.233522 -0.00109242 -0.00331048 0.25073 0.301194 
85.5 0.695297 -0.0615886 0.00114108 -2.49434e-05 -0.0619883 0.416825 0.010021 -0.00551964 0.00163575 -0.0186613 0.208431 -0.249813 -0.000127479 0.00106539 0.248405 0.322551 
87.75 0.707169 -0.0595124 0.00108507 0.00126857 -0.0586368 0.424166 -0.014345 0.00309676 -0.00227262 0.0130008 0.203522 -0.260241 0.000338772 0.00751613 0.255896 0.314071 
90 0.710251 -0.0550023 0.000552912 0.000351846 -0.05439 0.418889 -0.0100581 -0.00238329 -0.000177496 0.00888827 0.176661 -0.254932 9.52954e-05 0.00752868 0.251726 0.317827 
92.25 0.69402 -0.0546431 0.00162502 -1.30616e-05 -0.052624 0.390778 -0.00514597 0.01315 -0.00332221 0.00985127 0.148754 -0.240393 -0.00100817 -0.00286236 0.239796 0.297467 
94.5 0.718194 -0.0481859 -0.00107675 -0.000814373 -0.0511073 0.393303 -0.0196808 0.00825299 0.00203572 0.0129258 0.13955 -0.254537 0.00128026 0.0138944 0.258935 0.322746 
96.75 0.725525 -0.0457698 -0.00083213 0.00106015 -0.0468719 0.381229 -0.0095784 -0.00796321 0.00142913 0.00993305 0.135416 -0.243314 -0.000568995 -0.00452297 0.237828 0.325248 
99 0.761842 -0.0436621 -0.000877765 -0.0011828 -0.0411267 0.365864 -0.0122228 0.000544588 -0.000346354 0.022698 0.102809 -0.24985 -0.00134228 0.00394181 0.248166 0.330578 
101.25 0.752915 -0.0353507 -0.00117254 -0.00107765 -0.0347645 0.377387 0.0165429 -0.0075643 0.000377469 -0.00973963 0.101004 -0.237701 0.000745025 -0.0101726 0.249067 0.324472 
103.5 0.746127 -0.0352159 -0.00115439 -0.0017377 -0.0372747 0.367535 0.0281866 -0.00111437 0.00179579 -0.0307164 0.0853348 -0.223057 0.00195257 -0.00993556 0.220242 0.316864 
105.75 0.748162 -0.0342054 -0.00114658 0.00218642 -0.0301113 0.362825 0.0137948 0.00932073 -0.0018518 -0.0190538 0.0718421 -0.239098 0.000451566 0.000916691 0.244767 0.314188 
108 0.77476 -0.0278054 0.000324965 0.0010508 -0.0298349 0.361471 -0.00566412 -0.00539065 5.51867e-05 0.0102508 0.0543853 -0.234784 -0.00071261 0.00336322 0.228239 0.316636 
110.25 0.728807 -0.0260368 0.000312922 0.00112332 -0.0274567 0.319999 0.00483536 -0.00786945 0.000692296 -0.00174479 0.0323256 -0.197332 0.000837453 -0.00174798 0.194631 0.297318 
112.5 0.788941 -0.0261406 0.000650271 0.00178026 -0.0263954 0.357451 -0.0116245 0.0135716 -0.0038944 0.0134843 0.0366596 -0.207641 -0.000728718 0.000216347 0.214863 0.318896 
114.75 0.769422 -0.0240518 0.00116909 0.000772621 -0.0243335 0.325615 -0.00811163 0.0119896 0.00177593 0.00903068 0.00945075 -0.181823 0.000734901 0.00842708 0.184297 0.309275 
117 0.762443 -0.0236482 -0.000883555 0.00102899 -0.0231156 0.310468 0.0109674 -0.0190559 0.0004375 -0.00543217 -0.00797664 -0.162421 0.00236547 -0.0178808 0.167073 0.308657 
119.25 0.771248 -0.0174469 0.0015096 0.00212707 -0.0173016 0.292649 -0.00590791 -0.00851673 -0.00222745 0.0119115 -0.0248826 -0.157178 0.00351732 -0.00206667 0.152937 0.301022 
121.5 0.770753 -0.017622 -0.00173272 0.00118955 -0.0178951 0.292247 0.0126213 -0.00420394 -0.000772255 -0.0185015 -0.0500413 -0.138887 0.0024816 -0.00348994 0.138128 0.281032 
123.75 0.764262 -0.018508 -0.00285741 0.000825019 -0.0168401 0.299321 0.016097 -0.0117777 0.00154014 -0.00769611 -0.0500896 -0.136037 -0.000370455 -0.00959388 0.131375 0.284564 
126 0.76764 -0.0164272 -0.00228702 0.00249009 -0.0161649 0.233293 0.0196832 -0.0458627 0.00404215 -0.0221075 -0.10744 -0.114629 0.00364863 -0.0435975 0.112006 0.2664 
128.25 0.779308 -0.0123619 -0.0055774 -2.6122e-05 -0.0139085 0.262789 0.0248951 -0.0213149 0.0027952 -0.0184264 -0.110731 -0.121747 -0.00159959 -0.0171655 0.113361 0.275601 
130.5 0.726346 -0.0164609 0.00586698 0.00104707 -0.0186649 0.242991 0.0167127 -0.0194575 -0.0032894 -0.0155933 -0.0988122 -0.0778453 0.00135576 -0.0181515 0.0829517 0.252365 
132.75 0.711156 -0.0275744 0.000606367 0.00143076 -0.0223051 0.245412 0.0185853 -0.0383392 0.0010614 -0.0238574 -0.119432 -0.0792829 0.00355309 -0.0371003 0.0760658 0.216284 
135 0.725474 -0.0253785 -0.00135527 0.00149347 -0.0206156 0.239277 0.0242344 -0.0464333 -0.00115708 -0.0227594 -0.143938 -0.0946382 0.0040202 -0.0388804 0.0818844 0.213986 
137.25 0.74172 -0.0160556 -0.00444199 0.0017506 -0.0118688 0.250444 -0.00467238 -0.016907 0.00436533 0.0071408 -0.136356 -0.0897197 0.00239767 -0.0140895 0.0882636 0.214605 
139.5 0.654717 -0.0128377 0.00519262 -0.00287315 -0.0136798 0.209494 0.00671821 -0.000988367 -0.00148572 -0.00871291 -0.164529 -0.0450751 -0.00160968 -0.00392957 0.0390051 0.156843 
141.75 0.69597 -0.0125871 0.00402241 -0.00130411 -0.0128767 0.223112 -0.00521218 0.0101932 -0.00544056 -0.00634683 -0.169992 -0.0274136 0.000564315 0.00196115 0.0290452 0.171092 
144 0.672028 -0.0179996 0.00317177 -0.00014843 -0.0178727 0.22987 -0.0179042 -0.00211617 -0.000627638 0.024393 -0.182234 -0.0178117 -0.00104669 0.0239309 0.0198512 0.134979 
146.25 0.687861 -0.0234508 -0.000257519 0.000384531 -0.0221926 0.226947 -0.00800002 -0.00229939 -0.00531512 0.0057156 -0.195019 -0.0229058 -0.00402963 -0.00858308 0.0305458 0.123267 
148.5 0.724649 -0.0122583 0.00304927 -3.74231e-05 -0.0148401 0.27082 0.000125582 0.0104933 -0.00403322 0.00206749 -0.195693 -0.0368906 0.00121687 -0.00560951 0.0212089 0.120342 
150.75 0.718101 -0.0159376 0.00294388 -0.000303188 -0.0130751 0.249432 0.0171351 0.0213787 -0.0045107 -0.0143062 -0.220645 -0.0362803 -0.00124012 0.00662514 0.0390512 0.105712 
153 0.789176 -0.00497071 0.00550648 -0.00298297 -0.00682843 0.27806 0.0114548 -0.00870204 -0.00151239 -0.0163494 -0.267374 -0.025899 -0.00320479 -0.00828315 0.0287739 0.093511 
155.25 0.778645 -0.00783881 0.00658486 0.00108573 -0.00750905 0.298283 -0.0120064 0.00530205 -0.00594081 0.00130549 -0.268197 -0.0302782 -0.00143105 0.0250118 0.0389385 0.083448 
157.5 0.762304 -0.0141617 0.00488853 -0.00231034 -0.0161235 0.285536 -0.0271938 0.00282589 -0.00604974 0.00832886 -0.261513 -0.0316214 -0.00185549 -0.000104656 0.0186654 0.0880371 
159.75 0.743833 -0.000991211 -0.00080323 -0.00410763 -0.00469354 0.259383 -0.00269887 0.0127557 0.000348142 0.0201481 -0.303945 0.0263511 -0.00345843 -0.000613907 -0.0358281 0.0790361 
162 0.729185 -0.00519714 0.0063562 -0.00188774 -0.00347327 0.282575 -0.0226682 -0.0166847 -0.00852518 0.0136983 -0.27628 0.0292266 -0.00222366 -0.00580247 -0.0254281 0.0619063 
164.25 0.746675 -0.0150444 0.00388697 -0.0019727 -0.0136874 0.307269 -0.0207331 -0.00942111 -0.000517093 0.0206499 -0.285999 0.022416 -0.00197283 -0.0150519 -0.0049847 0.0529712 
166.5 0.848004 -0.00929417 0.00743677 -0.00403696 -0.0110025 0.345519 0.0238678 -0.00704662 -0.00342808 -0.023221 -0.312997 0.0521985 -0.00350402 -0.0246599 -0.0386275 0.069169 
168.75 0.740487 -0.00187163 -0.00045102 -0.0069632 -8.3567e-05 0.312418 0.00376353 -0.00689381 -0.0057091 0.000308909 -0.283787 0.0664722 0.000439372 -0.017532 -0.0557261 0.0373375 
171 0.819356 0.00466506 0.00661867 -0.00896639 0.000275814 0.354184 0.00827258 -0.0309656 -0.000993425 -0.00849758 -0.347239 0.0728342 -0.00456419 -0.0491793 -0.0807407 0.0183319 
173.25 0.956221 0.000835207 0.00444293 -0.00150671 0.000788639 0.418171 0.0391236 -0.0347891 0.00392814 -0.0118631 -0.388297 -0.0105089 -0.0120685 -0.0482716 0.0163237 0.0379362 
175.5 0.864356 0.00823871 0.000651296 -0.0030781 0.00598566 0.297257 0.0709135 -0.0442143 0.0026292 -0.0461807 -0.396456 0.0553241 -0.00851264 -0.0183149 -0.0530716 0.072021 
177.75 1.07468 -0.00236142 -0.00218809 -0.0115341 -0.007894 0.43254 0.045635 0.00223451 -0.01066 -0.0351703 -0.472566 0.0186779 -0.00489624 -0.01047 -0.00637873 0.0311892 
180 0.746197 -0.0103334 -0.0116085 -0.0247764 -0.00927756 0.378775 0.00960564 -0.137696 0.0058915 -0.0354308 -0.461875 0.0333478 0.00334715 -0.113783 -0.00377041 -0.140422 
