0 0.765973 -0.034984 0.680452 0.669817 -0.0201619 0.721382 
2.25 1.05911 -0.0462302 0.92114 0.88346 0.00275 0.90665 
4.5 1.90357 -0.0851936 1.75287 1.77785 -0.011939 1.76281 
6.75 7.51921 -0.168583 7.40471 7.39272 -0.0030907 7.38882 
9 2.24791 -0.0936101 2.12566 2.10977 0.00951363 2.09295 
11.25 4.28239 -0.0991985 4.16959 4.14483 0.00593086 4.13421 
13.5 7.79244 -0.119345 7.67604 7.65173 -0.00930112 7.64589 
15.75 4.6077 -0.14501 4.49545 4.46115 0.000994477 4.46023 
18 3.13892 -0.115163 3.02578 2.99033 -0.00719479 2.98565 
20.25 2.08631 -0.102556 1.98487 1.92901 -0.0149158 1.91753 
22.5 1.89577 -0.0846283 1.80512 1.75232 -0.0224236 1.74367 
24.75 1.39501 -0.112627 1.27646 1.2141 -0.0157094 1.19712 
27 1.44686 -0.109291 1.33639 1.27559 -0.0210333 1.26451 
29.25 1.91815 -0.0717083 1.81276 1.73936 -0.0221126 1.72761 
31.5 2.54842 -0.0103265 2.44742 2.36316 -0.0409634 2.35794 
33.75 2.34715 -0.0116363 2.23923 2.15624 -0.0445363 2.15035 
36 2.3308 0.0122972 2.21872 2.12656 -0.0336296 2.12945 
38.25 2.21329 0.0267681 2.08606 1.98294 -0.057753 1.98372 
40.5 1.87789 0.0123739 1.74124 1.64297 -0.0609354 1.65372 
42.75 1.57988 -0.000682252 1.44037 1.34538 -0.0737117 1.33823 
45 1.366 -0.000923967 1.20717 1.11483 -0.0650203 1.10381 
47.25 1.22724 -0.0367257 1.03976 0.926162 -0.0916408 0.931321 
49.5 1.01593 -0.0496599 0.838447 0.728682 -0.09749 0.730367 
51.75 0.886728 -0.0684604 0.716842 0.587765 -0.128584 0.595493 
54 0.79839 -0.0733489 0.622551 0.499846 -0.111367 0.514151 
56.25 0.767739 -0.0727491 0.582913 0.448026 -0.138451 0.467112 
58.5 0.782108 -0.072828 0.57451 0.427019 -0.158552 0.457228 
60.75 0.783211 -0.0708521 0.560939 0.416074 -0.16003 0.434279 
63 0.757342 -0.0570301 0.563193 0.408294 -0.163831 0.43263 
65.25 0.776557 -0.0516702 0.557929 0.400162 -0.183224 0.439013 
67.5 0.72558 -0.0648253 0.510754 0.340657 -0.195175 0.39088 
69.75 0.683665 -0.0690002 0.47605 0.305023 -0.205271 0.338779 
72 0.669353 -0.0767035 0.459281 0.284069 -0.218338 0.331374 
74.25 0.695731 -0.0693064 0.470062 0.286459 -0.23286 0.342367 
76.5 0.665207 -0.0669297 0.459121 0.270546 -0.236639 0.328656 
78.75 0.714035 -0.0643332 0.471569 0.267644 -0.269338 0.348846 
81 0.641596 -0.0655021 0.404639 0.218378 -0.239191 0.293708 
83.25 0.674828 -0.0666102 0.414166 0.209218 -0.233522 0.301194 
85.5 0.695297 -0.0615886 0.416825 0.208431 -0.249813 0.322551 
87.75 0.707169 -0.0595124 0.424166 0.203522 -0.260241 0.314071 
90 0.710251 -0.0550023 0.418889 0.176661 -0.254932 0.317827 
92.25 0.69402 -0.0546431 0.390778 0.148754 -0.240393 0.297467 
94.5 0.718194 -0.0481859 0.393303 0.13955 -0.254537 0.322746 
96.75 0.725525 -0.0457698 0.381229 0.135416 -0.243314 0.325248 
99 0.761842 -0.0436621 0.365864 0.102809 -0.24985 0.330578 
101.25 0.752915 -0.0353507 0.377387 0.101004 -0.237701 0.324472 
103.5 0.746127 -0.0352159 0.367535 0.0853348 -0.223057 0.316864 
105.75 0.748162 -0.0342054 0.362825 0.0718421 -0.239098 0.314188 
108 0.77476 -0.0278054 0.361471 0.0543853 -0.234784 0.316636 
110.25 0.728807 -0.0260368 0.319999 0.0323256 -0.197332 0.297318 
112.5 0.788941 -0.0261406 0.357451 0.0366596 -0.207641 0.318896 
114.75 0.769422 -0.0240518 0.325615 0.00945075 -0.181823 0.309275 
117 0.762443 -0.0236482 0.310468 -0.00797664 -0.162421 0.308657 
119.25 0.771248 -0.0174469 0.292649 -0.0248826 -0.157178 0.301022 
121.5 0.770753 -0.017622 0.292247 -0.0500413 -0.138887 0.281032 
123.75 0.764262 -0.018508 0.299321 -0.0500896 -0.136037 0.284564 
126 0.76764 -0.0164272 0.233293 -0.10744 -0.114629 0.2664 
128.25 0.779308 -0.0123619 0.262789 -0.110731 -0.121747 0.275601 
130.5 0.726346 -0.0164609 0.242991 -0.0988122 -0.0778453 0.252365 
132.75 0.711156 -0.0275744 0.245412 -0.119432 -0.0792829 0.216284 
135 0.725474 -0.0253785 0.239277 -0.143938 -0.0946382 0.213986 
137.25 0.74172 -0.0160556 0.250444 -0.136356 -0.0897197 0.214605 
139.5 0.654717 -0.0128377 0.209494 -0.164529 -0.0450751 0.156843 
141.75 0.69597 -0.0125871 0.223112 -0.169992 -0.0274136 0.171092 
144 0.672028 -0.0179996 0.22987 -0.182234 -0.0178117 0.134979 
146.25 0.687861 -0.0234508 0.226947 -0.195019 -0.0229058 0.123267 
148.5 0.724649 -0.0122583 0.27082 -0.195693 -0.0368906 0.120342 
150.75 0.718101 -0.0159376 0.249432 -0.220645 -0.0362803 0.105712 
153 0.789176 -0.00497071 0.27806 -0.267374 -0.025899 0.093511 
155.25 0.778645 -0.00783881 0.298283 -0.268197 -0.0302782 0.083448 
157.5 0.762304 -0.0141617 0.285536 -0.261513 -0.0316214 0.0880371 
159.75 0.743833 -0.000991211 0.259383 -0.303945 0.0263511 0.0790361 
162 0.729185 -0.00519714 0.282575 -0.27628 0.0292266 0.0619063 
164.25 0.746675 -0.0150444 0.307269 -0.285999 0.022416 0.0529712 
166.5 0.848004 -0.00929417 0.345519 -0.312997 0.0521985 0.069169 
168.75 0.740487 -0.00187163 0.312418 -0.283787 0.0664722 0.0373375 
171 0.819356 0.00466506 0.354184 -0.347239 0.0728342 0.0183319 
173.25 0.956221 0.000835207 0.418171 -0.388297 -0.0105089 0.0379362 
175.5 0.864356 0.00823871 0.297257 -0.396456 0.0553241 0.072021 
177.75 1.07468 -0.00236142 0.43254 -0.472566 0.0186779 0.0311892 
180 0.746197 -0.0103334 0.378775 -0.461875 0.0333478 -0.140422 
